A12/ALL0005 (opdr9)/F0005CH2.CSV

Record Length,2.500000e+03,,   0.290000000000,   1.52000,
Sample Interval,1.000000e-03,,   0.291000000000,   1.52000,
Trigger Point,-2.900000000000e+02,,   0.292000000000,   1.52000,
,,,   0.293000000000,   1.52000,
,,,   0.294000000000,   1.52000,
,,,   0.295000000000,   1.52000,
Source,CH2,,   0.296000000000,   1.52000,
Vertical Units,V,,   0.297000000000,   1.52000,
Vertical Scale,2.000000e-01,,   0.298000000000,   1.52000,
Vertical Offset,-5.040000e-01,,   0.299000000000,   1.52000,
Horizontal Units,s,,   0.300000000000,   1.52000,
Horizontal Scale,2.500000e-01,,   0.301000000000,   1.52000,
Pt Fmt,Y,,   0.302000000000,   1.52000,
Yzero,0.000000e+00,,   0.303000000000,   1.52000,
Probe Atten,1.000000e+00,,   0.304000000000,   1.52000,
Model Number,TDS1002B,,   0.305000000000,   1.52000,
Serial Number,C030665,,   0.306000000000,   1.52000,
Firmware Version,FV:v22.16,,   0.307000000000,   1.52000,
,,,0.308000000000,   1.52000,
,,,0.309000000000,   1.52000,
,,,0.310000000000,   1.52000,
,,,0.311000000000,   1.52000,
,,,0.312000000000,   1.52000,
,,,0.313000000000,   1.52000,
,,,0.314000000000,   1.52000,
,,,0.315000000000,   1.52000,
,,,0.316000000000,   1.52000,
,,,0.317000000000,   1.52000,
,,,0.318000000000,   1.52000,
,,,0.319000000000,   1.52000,
,,,0.320000000000,   1.52000,
,,,0.321000000000,   1.52000,
,,,0.322000000000,   1.52000,
,,,0.323000000000,   1.52000,
,,,0.324000000000,   1.52000,
,,,0.325000000000,   1.52000,
,,,0.326000000000,   1.52000,
,,,0.327000000000,   1.52000,
,,,0.328000000000,   1.52000,
,,,0.329000000000,   1.52000,
,,,0.330000000000,   1.52000,
,,,0.331000000000,   1.52000,
,,,0.332000000000,   1.52000,
,,,0.333000000000,   1.52000,
,,,0.334000000000,   1.52000,
,,,0.335000000000,   1.52000,
,,,0.336000000000,   1.52000,
,,,0.337000000000,   1.52000,
,,,0.338000000000,   1.52000,
,,,0.339000000000,   1.52000,
,,,0.340000000000,   1.52000,
,,,0.341000000000,   1.52000,
,,,0.342000000000,   1.52000,
,,,0.343000000000,   1.52000,
,,,0.344000000000,   1.52000,
,,,0.345000000000,   1.52000,
,,,0.346000000000,   1.52000,
,,,0.347000000000,   1.52000,
,,,0.348000000000,   1.52000,
,,,0.349000000000,   1.52000,
,,,0.350000000000,   1.52000,
,,,0.351000000000,   1.52000,
,,,0.352000000000,   1.52000,
,,,0.353000000000,   1.52000,
,,,0.354000000000,   1.52000,
,,,0.355000000000,   1.52000,
,,,0.356000000000,   1.52000,
,,,0.357000000000,   1.52000,
,,,0.358000000000,   1.52000,
,,,0.359000000000,   1.52000,
,,,0.360000000000,   1.52000,
,,,0.361000000000,   1.52000,
,,,0.362000000000,   1.52000,
,,,0.363000000000,   1.52000,
,,,0.364000000000,   1.51200,
,,,0.365000000000,   1.52000,
,,,0.366000000000,   1.52000,
,,,0.367000000000,   1.52000,
,,,0.368000000000,   1.51200,
,,,0.369000000000,   1.51200,
,,,0.370000000000,   1.52000,
,,,0.371000000000,   1.52000,
,,,0.372000000000,   1.51200,
,,,0.373000000000,   1.49600,
,,,0.374000000000,   1.50400,
,,,0.375000000000,   1.51200,
,,,0.376000000000,   1.50400,
,,,0.377000000000,   1.48800,
,,,0.378000000000,   1.48000,
,,,0.379000000000,   1.49600,
,,,0.380000000000,   1.49600,
,,,0.381000000000,   1.49600,
,,,0.382000000000,   1.48000,
,,,0.383000000000,   1.48800,
,,,0.384000000000,   1.49600,
,,,0.385000000000,   1.49600,
,,,0.386000000000,   1.48800,
,,,0.387000000000,   1.48000,
,,,0.388000000000,   1.48800,
,,,0.389000000000,   1.49600,
,,,0.390000000000,   1.48000,
,,,0.391000000000,   1.46400,
,,,0.392000000000,   1.47200,
,,,0.393000000000,   1.48000,
,,,0.394000000000,   1.48000,
,,,0.395000000000,   1.46400,
,,,0.396000000000,   1.45600,
,,,0.397000000000,   1.46400,
,,,0.398000000000,   1.47200,
,,,0.399000000000,   1.47200,
,,,0.400000000000,   1.45600,
,,,0.401000000000,   1.45600,
,,,0.402000000000,   1.47200,
,,,0.403000000000,   1.47200,
,,,0.404000000000,   1.45600,
,,,0.405000000000,   1.45600,
,,,0.406000000000,   1.45600,
,,,0.407000000000,   1.46400,
,,,0.408000000000,   1.46400,
,,,0.409000000000,   1.45600,
,,,0.410000000000,   1.44800,
,,,0.411000000000,   1.45600,
,,,0.412000000000,   1.46400,
,,,0.413000000000,   1.45600,
,,,0.414000000000,   1.44800,
,,,0.415000000000,   1.44800,
,,,0.416000000000,   1.45600,
,,,0.417000000000,   1.45600,
,,,0.418000000000,   1.44800,
,,,0.419000000000,   1.44000,
,,,0.420000000000,   1.44800,
,,,0.421000000000,   1.44800,
,,,0.422000000000,   1.44800,
,,,0.423000000000,   1.43200,
,,,0.424000000000,   1.43200,
,,,0.425000000000,   1.44000,
,,,0.426000000000,   1.44800,
,,,0.427000000000,   1.43200,
,,,0.428000000000,   1.42400,
,,,0.429000000000,   1.43200,
,,,0.430000000000,   1.44000,
,,,0.431000000000,   1.44000,
,,,0.432000000000,   1.43200,
,,,0.433000000000,   1.43200,
,,,0.434000000000,   1.43200,
,,,0.435000000000,   1.44000,
,,,0.436000000000,   1.43200,
,,,0.437000000000,   1.42400,
,,,0.438000000000,   1.42400,
,,,0.439000000000,   1.43200,
,,,0.440000000000,   1.43200,
,,,0.441000000000,   1.42400,
,,,0.442000000000,   1.41600,
,,,0.443000000000,   1.42400,
,,,0.444000000000,   1.43200,
,,,0.445000000000,   1.42400,
,,,0.446000000000,   1.41600,
,,,0.447000000000,   1.41600,
,,,0.448000000000,   1.41600,
,,,0.449000000000,   1.42400,
,,,0.450000000000,   1.41600,
,,,0.451000000000,   1.40000,
,,,0.452000000000,   1.40800,
,,,0.453000000000,   1.41600,
,,,0.454000000000,   1.40800,
,,,0.455000000000,   1.40000,
,,,0.456000000000,   1.40000,
,,,0.457000000000,   1.40000,
,,,0.458000000000,   1.40000,
,,,0.459000000000,   1.40000,
,,,0.460000000000,   1.38400,
,,,0.461000000000,   1.38400,
,,,0.462000000000,   1.40000,
,,,0.463000000000,   1.39200,
,,,0.464000000000,   1.38400,
,,,0.465000000000,   1.37600,
,,,0.466000000000,   1.38400,
,,,0.467000000000,   1.39200,
,,,0.468000000000,   1.39200,
,,,0.469000000000,   1.37600,
,,,0.470000000000,   1.37600,
,,,0.471000000000,   1.37600,
,,,0.472000000000,   1.37600,
,,,0.473000000000,   1.36800,
,,,0.474000000000,   1.36800,
,,,0.475000000000,   1.36800,
,,,0.476000000000,   1.36800,
,,,0.477000000000,   1.36800,
,,,0.478000000000,   1.35200,
,,,0.479000000000,   1.35200,
,,,0.480000000000,   1.36000,
,,,0.481000000000,   1.36800,
,,,0.482000000000,   1.36000,
,,,0.483000000000,   1.35200,
,,,0.484000000000,   1.35200,
,,,0.485000000000,   1.36000,
,,,0.486000000000,   1.36800,
,,,0.487000000000,   1.35200,
,,,0.488000000000,   1.35200,
,,,0.489000000000,   1.35200,
,,,0.490000000000,   1.36000,
,,,0.491000000000,   1.35200,
,,,0.492000000000,   1.34400,
,,,0.493000000000,   1.34400,
,,,0.494000000000,   1.35200,
,,,0.495000000000,   1.35200,
,,,0.496000000000,   1.33600,
,,,0.497000000000,   1.33600,
,,,0.498000000000,   1.33600,
,,,0.499000000000,   1.34400,
,,,0.500000000000,   1.33600,
,,,0.501000000000,   1.32800,
,,,0.502000000000,   1.32800,
,,,0.503000000000,   1.33600,
,,,0.504000000000,   1.33600,
,,,0.505000000000,   1.32800,
,,,0.506000000000,   1.32000,
,,,0.507000000000,   1.32800,
,,,0.508000000000,   1.32800,
,,,0.509000000000,   1.32800,
,,,0.510000000000,   1.31200,
,,,0.511000000000,   1.31200,
,,,0.512000000000,   1.32000,
,,,0.513000000000,   1.32800,
,,,0.514000000000,   1.32000,
,,,0.515000000000,   1.31200,
,,,0.516000000000,   1.31200,
,,,0.517000000000,   1.32000,
,,,0.518000000000,   1.32000,
,,,0.519000000000,   1.30400,
,,,0.520000000000,   1.30400,
,,,0.521000000000,   1.31200,
,,,0.522000000000,   1.31200,
,,,0.523000000000,   1.30400,
,,,0.524000000000,   1.29600,
,,,0.525000000000,   1.29600,
,,,0.526000000000,   1.30400,
,,,0.527000000000,   1.30400,
,,,0.528000000000,   1.29600,
,,,0.529000000000,   1.28800,
,,,0.530000000000,   1.28800,
,,,0.531000000000,   1.30400,
,,,0.532000000000,   1.29600,
,,,0.533000000000,   1.28000,
,,,0.534000000000,   1.28800,
,,,0.535000000000,   1.28800,
,,,0.536000000000,   1.28800,
,,,0.537000000000,   1.28800,
,,,0.538000000000,   1.27200,
,,,0.539000000000,   1.28000,
,,,0.540000000000,   1.28000,
,,,0.541000000000,   1.28800,
,,,0.542000000000,   1.27200,
,,,0.543000000000,   1.27200,
,,,0.544000000000,   1.27200,
,,,0.545000000000,   1.28800,
,,,0.546000000000,   1.28000,
,,,0.547000000000,   1.26400,
,,,0.548000000000,   1.26400,
,,,0.549000000000,   1.27200,
,,,0.550000000000,   1.27200,
,,,0.551000000000,   1.26400,
,,,0.552000000000,   1.25600,
,,,0.553000000000,   1.26400,
,,,0.554000000000,   1.27200,
,,,0.555000000000,   1.26400,
,,,0.556000000000,   1.24800,
,,,0.557000000000,   1.25600,
,,,0.558000000000,   1.25600,
,,,0.559000000000,   1.25600,
,,,0.560000000000,   1.25600,
,,,0.561000000000,   1.24800,
,,,0.562000000000,   1.24800,
,,,0.563000000000,   1.25600,
,,,0.564000000000,   1.25600,
,,,0.565000000000,   1.24800,
,,,0.566000000000,   1.24000,
,,,0.567000000000,   1.24800,
,,,0.568000000000,   1.24800,
,,,0.569000000000,   1.24800,
,,,0.570000000000,   1.23200,
,,,0.571000000000,   1.23200,
,,,0.572000000000,   1.24000,
,,,0.573000000000,   1.23200,
,,,0.574000000000,   1.22400,
,,,0.575000000000,   1.21600,
,,,0.576000000000,   1.22400,
,,,0.577000000000,   1.22400,
,,,0.578000000000,   1.22400,
,,,0.579000000000,   1.20800,
,,,0.580000000000,   1.21600,
,,,0.581000000000,   1.21600,
,,,0.582000000000,   1.22400,
,,,0.583000000000,   1.21600,
,,,0.584000000000,   1.20800,
,,,0.585000000000,   1.20800,
,,,0.586000000000,   1.21600,
,,,0.587000000000,   1.21600,
,,,0.588000000000,   1.20000,
,,,0.589000000000,   1.20000,
,,,0.590000000000,   1.20000,
,,,0.591000000000,   1.20000,
,,,0.592000000000,   1.20000,
,,,0.593000000000,   1.19200,
,,,0.594000000000,   1.19200,
,,,0.595000000000,   1.20000,
,,,0.596000000000,   1.20000,
,,,0.597000000000,   1.19200,
,,,0.598000000000,   1.18400,
,,,0.599000000000,   1.19200,
,,,0.600000000000,   1.19200,
,,,0.601000000000,   1.19200,
,,,0.602000000000,   1.18400,
,,,0.603000000000,   1.17600,
,,,0.604000000000,   1.18400,
,,,0.605000000000,   1.19200,
,,,0.606000000000,   1.17600,
,,,0.607000000000,   1.17600,
,,,0.608000000000,   1.17600,
,,,0.609000000000,   1.18400,
,,,0.610000000000,   1.17600,
,,,0.611000000000,   1.16800,
,,,0.612000000000,   1.16800,
,,,0.613000000000,   1.17600,
,,,0.614000000000,   1.17600,
,,,0.615000000000,   1.16800,
,,,0.616000000000,   1.16800,
,,,0.617000000000,   1.16800,
,,,0.618000000000,   1.17600,
,,,0.619000000000,   1.17600,
,,,0.620000000000,   1.16000,
,,,0.621000000000,   1.16000,
,,,0.622000000000,   1.16000,
,,,0.623000000000,   1.16000,
,,,0.624000000000,   1.16000,
,,,0.625000000000,   1.15200,
,,,0.626000000000,   1.15200,
,,,0.627000000000,   1.15200,
,,,0.628000000000,   1.15200,
,,,0.629000000000,   1.14400,
,,,0.630000000000,   1.14400,
,,,0.631000000000,   1.14400,
,,,0.632000000000,   1.15200,
,,,0.633000000000,   1.15200,
,,,0.634000000000,   1.14400,
,,,0.635000000000,   1.14400,
,,,0.636000000000,   1.15200,
,,,0.637000000000,   1.15200,
,,,0.638000000000,   1.14400,
,,,0.639000000000,   1.13600,
,,,0.640000000000,   1.13600,
,,,0.641000000000,   1.14400,
,,,0.642000000000,   1.14400,
,,,0.643000000000,   1.12800,
,,,0.644000000000,   1.12800,
,,,0.645000000000,   1.13600,
,,,0.646000000000,   1.13600,
,,,0.647000000000,   1.13600,
,,,0.648000000000,   1.12000,
,,,0.649000000000,   1.12800,
,,,0.650000000000,   1.13600,
,,,0.651000000000,   1.12800,
,,,0.652000000000,   1.12000,
,,,0.653000000000,   1.11200,
,,,0.654000000000,   1.12000,
,,,0.655000000000,   1.12000,
,,,0.656000000000,   1.12000,
,,,0.657000000000,   1.11200,
,,,0.658000000000,   1.10400,
,,,0.659000000000,   1.10400,
,,,0.660000000000,   1.11200,
,,,0.661000000000,   1.10400,
,,,0.662000000000,   1.10400,
,,,0.663000000000,   1.10400,
,,,0.664000000000,   1.10400,
,,,0.665000000000,   1.11200,
,,,0.666000000000,   1.10400,
,,,0.667000000000,   1.10400,
,,,0.668000000000,   1.10400,
,,,0.669000000000,   1.11200,
,,,0.670000000000,   1.10400,
,,,0.671000000000,   1.09600,
,,,0.672000000000,   1.09600,
,,,0.673000000000,   1.09600,
,,,0.674000000000,   1.09600,
,,,0.675000000000,   1.08800,
,,,0.676000000000,   1.08800,
,,,0.677000000000,   1.08800,
,,,0.678000000000,   1.08800,
,,,0.679000000000,   1.08800,
,,,0.680000000000,   1.08000,
,,,0.681000000000,   1.08000,
,,,0.682000000000,   1.08000,
,,,0.683000000000,   1.08800,
,,,0.684000000000,   1.08000,
,,,0.685000000000,   1.08000,
,,,0.686000000000,   1.08000,
,,,0.687000000000,   1.08800,
,,,0.688000000000,   1.08000,
,,,0.689000000000,   1.07200,
,,,0.690000000000,   1.07200,
,,,0.691000000000,   1.07200,
,,,0.692000000000,   1.07200,
,,,0.693000000000,   1.06400,
,,,0.694000000000,   1.05600,
,,,0.695000000000,   1.06400,
,,,0.696000000000,   1.06400,
,,,0.697000000000,   1.06400,
,,,0.698000000000,   1.05600,
,,,0.699000000000,   1.05600,
,,,0.700000000000,   1.05600,
,,,0.701000000000,   1.06400,
,,,0.702000000000,   1.05600,
,,,0.703000000000,   1.04800,
,,,0.704000000000,   1.04800,
,,,0.705000000000,   1.04800,
,,,0.706000000000,   1.04800,
,,,0.707000000000,   1.04000,
,,,0.708000000000,   1.04000,
,,,0.709000000000,   1.04800,
,,,0.710000000000,   1.04800,
,,,0.711000000000,   1.04800,
,,,0.712000000000,   1.04000,
,,,0.713000000000,   1.04000,
,,,0.714000000000,   1.04800,
,,,0.715000000000,   1.04800,
,,,0.716000000000,   1.04000,
,,,0.717000000000,   1.04000,
,,,0.718000000000,   1.04000,
,,,0.719000000000,   1.04000,
,,,0.720000000000,   1.04000,
,,,0.721000000000,   1.03200,
,,,0.722000000000,   1.03200,
,,,0.723000000000,   1.03200,
,,,0.724000000000,   1.03200,
,,,0.725000000000,   1.02400,
,,,0.726000000000,   1.02400,
,,,0.727000000000,   1.02400,
,,,0.728000000000,   1.02400,
,,,0.729000000000,   1.02400,
,,,0.730000000000,   1.01600,
,,,0.731000000000,   1.01600,
,,,0.732000000000,   1.01600,
,,,0.733000000000,   1.02400,
,,,0.734000000000,   1.02400,
,,,0.735000000000,   1.00800,
,,,0.736000000000,   1.00800,
,,,0.737000000000,   1.01600,
,,,0.738000000000,   1.01600,
,,,0.739000000000,   1.00800,
,,,0.740000000000,   1.00000,
,,,0.741000000000,   1.00000,
,,,0.742000000000,   1.00800,
,,,0.743000000000,   1.00000,
,,,0.744000000000,   0.99200,
,,,0.745000000000,   0.99200,
,,,0.746000000000,   0.99200,
,,,0.747000000000,   1.00000,
,,,0.748000000000,   0.99200,
,,,0.749000000000,   0.98400,
,,,0.750000000000,   0.99200,
,,,0.751000000000,   0.99200,
,,,0.752000000000,   0.99200,
,,,0.753000000000,   0.98400,
,,,0.754000000000,   0.97600,
,,,0.755000000000,   0.97600,
,,,0.756000000000,   0.98400,
,,,0.757000000000,   0.98400,
,,,0.758000000000,   0.97600,
,,,0.759000000000,   0.97600,
,,,0.760000000000,   0.97600,
,,,0.761000000000,   0.98400,
,,,0.762000000000,   0.97600,
,,,0.763000000000,   0.96800,
,,,0.764000000000,   0.97600,
,,,0.765000000000,   0.98400,
,,,0.766000000000,   0.97600,
,,,0.767000000000,   0.97600,
,,,0.768000000000,   0.97600,
,,,0.769000000000,   0.97600,
,,,0.770000000000,   0.97600,
,,,0.771000000000,   0.97600,
,,,0.772000000000,   0.96800,
,,,0.773000000000,   0.96800,
,,,0.774000000000,   0.97600,
,,,0.775000000000,   0.96800,
,,,0.776000000000,   0.96000,
,,,0.777000000000,   0.96000,
,,,0.778000000000,   0.96000,
,,,0.779000000000,   0.96000,
,,,0.780000000000,   0.96000,
,,,0.781000000000,   0.95200,
,,,0.782000000000,   0.95200,
,,,0.783000000000,   0.96000,
,,,0.784000000000,   0.96000,
,,,0.785000000000,   0.95200,
,,,0.786000000000,   0.95200,
,,,0.787000000000,   0.95200,
,,,0.788000000000,   0.95200,
,,,0.789000000000,   0.95200,
,,,0.790000000000,   0.94400,
,,,0.791000000000,   0.93600,
,,,0.792000000000,   0.93600,
,,,0.793000000000,   0.94400,
,,,0.794000000000,   0.92800,
,,,0.795000000000,   0.92000,
,,,0.796000000000,   0.92800,
,,,0.797000000000,   0.92800,
,,,0.798000000000,   0.92800,
,,,0.799000000000,   0.92000,
,,,0.800000000000,   0.91200,
,,,0.801000000000,   0.92000,
,,,0.802000000000,   0.92000,
,,,0.803000000000,   0.91200,
,,,0.804000000000,   0.91200,
,,,0.805000000000,   0.91200,
,,,0.806000000000,   0.92000,
,,,0.807000000000,   0.92000,
,,,0.808000000000,   0.90400,
,,,0.809000000000,   0.90400,
,,,0.810000000000,   0.90400,
,,,0.811000000000,   0.91200,
,,,0.812000000000,   0.90400,
,,,0.813000000000,   0.89600,
,,,0.814000000000,   0.90400,
,,,0.815000000000,   0.91200,
,,,0.816000000000,   0.91200,
,,,0.817000000000,   0.90400,
,,,0.818000000000,   0.90400,
,,,0.819000000000,   0.90400,
,,,0.820000000000,   0.90400,
,,,0.821000000000,   0.90400,
,,,0.822000000000,   0.89600,
,,,0.823000000000,   0.89600,
,,,0.824000000000,   0.90400,
,,,0.825000000000,   0.90400,
,,,0.826000000000,   0.89600,
,,,0.827000000000,   0.88800,
,,,0.828000000000,   0.89600,
,,,0.829000000000,   0.90400,
,,,0.830000000000,   0.90400,
,,,0.831000000000,   0.89600,
,,,0.832000000000,   0.89600,
,,,0.833000000000,   0.90400,
,,,0.834000000000,   0.90400,
,,,0.835000000000,   0.90400,
,,,0.836000000000,   0.89600,
,,,0.837000000000,   0.89600,
,,,0.838000000000,   0.89600,
,,,0.839000000000,   0.89600,
,,,0.840000000000,   0.88800,
,,,0.841000000000,   0.88800,
,,,0.842000000000,   0.88800,
,,,0.843000000000,   0.88800,
,,,0.844000000000,   0.88800,
,,,0.845000000000,   0.88000,
,,,0.846000000000,   0.88000,
,,,0.847000000000,   0.88000,
,,,0.848000000000,   0.88000,
,,,0.849000000000,   0.87200,
,,,0.850000000000,   0.86400,
,,,0.851000000000,   0.86400,
,,,0.852000000000,   0.87200,
,,,0.853000000000,   0.86400,
,,,0.854000000000,   0.85600,
,,,0.855000000000,   0.85600,
,,,0.856000000000,   0.85600,
,,,0.857000000000,   0.85600,
,,,0.858000000000,   0.85600,
,,,0.859000000000,   0.84800,
,,,0.860000000000,   0.84800,
,,,0.861000000000,   0.85600,
,,,0.862000000000,   0.85600,
,,,0.863000000000,   0.84800,
,,,0.864000000000,   0.84000,
,,,0.865000000000,   0.84800,
,,,0.866000000000,   0.85600,
,,,0.867000000000,   0.84800,
,,,0.868000000000,   0.84000,
,,,0.869000000000,   0.84000,
,,,0.870000000000,   0.84800,
,,,0.871000000000,   0.84800,
,,,0.872000000000,   0.84000,
,,,0.873000000000,   0.83200,
,,,0.874000000000,   0.83200,
,,,0.875000000000,   0.84000,
,,,0.876000000000,   0.83200,
,,,0.877000000000,   0.83200,
,,,0.878000000000,   0.83200,
,,,0.879000000000,   0.84000,
,,,0.880000000000,   0.84800,
,,,0.881000000000,   0.84000,
,,,0.882000000000,   0.83200,
,,,0.883000000000,   0.84000,
,,,0.884000000000,   0.84000,
,,,0.885000000000,   0.84800,
,,,0.886000000000,   0.84000,
,,,0.887000000000,   0.83200,
,,,0.888000000000,   0.84000,
,,,0.889000000000,   0.84000,
,,,0.890000000000,   0.84000,
,,,0.891000000000,   0.83200,
,,,0.892000000000,   0.82400,
,,,0.893000000000,   0.83200,
,,,0.894000000000,   0.83200,
,,,0.895000000000,   0.81600,
,,,0.896000000000,   0.81600,
,,,0.897000000000,   0.81600,
,,,0.898000000000,   0.81600,
,,,0.899000000000,   0.81600,
,,,0.900000000000,   0.80800,
,,,0.901000000000,   0.80800,
,,,0.902000000000,   0.80800,
,,,0.903000000000,   0.80800,
,,,0.904000000000,   0.80000,
,,,0.905000000000,   0.79200,
,,,0.906000000000,   0.79200,
,,,0.907000000000,   0.80000,
,,,0.908000000000,   0.80000,
,,,0.909000000000,   0.78400,
,,,0.910000000000,   0.78400,
,,,0.911000000000,   0.79200,
,,,0.912000000000,   0.80000,
,,,0.913000000000,   0.79200,
,,,0.914000000000,   0.78400,
,,,0.915000000000,   0.78400,
,,,0.916000000000,   0.78400,
,,,0.917000000000,   0.80000,
,,,0.918000000000,   0.78400,
,,,0.919000000000,   0.78400,
,,,0.920000000000,   0.79200,
,,,0.921000000000,   0.79200,
,,,0.922000000000,   0.79200,
,,,0.923000000000,   0.78400,
,,,0.924000000000,   0.78400,
,,,0.925000000000,   0.78400,
,,,0.926000000000,   0.79200,
,,,0.927000000000,   0.78400,
,,,0.928000000000,   0.78400,
,,,0.929000000000,   0.78400,
,,,0.930000000000,   0.78400,
,,,0.931000000000,   0.79200,
,,,0.932000000000,   0.78400,
,,,0.933000000000,   0.78400,
,,,0.934000000000,   0.78400,
,,,0.935000000000,   0.79200,
,,,0.936000000000,   0.78400,
,,,0.937000000000,   0.78400,
,,,0.938000000000,   0.78400,
,,,0.939000000000,   0.78400,
,,,0.940000000000,   0.78400,
,,,0.941000000000,   0.77600,
,,,0.942000000000,   0.77600,
,,,0.943000000000,   0.77600,
